…
#Check co-infections
spec_pathogen_data %>%
  group_by(individual, date) %>%
  filter(sum(present) > 2) %>%
  ungroup()
```

    ## # A tibble: 54 × 11
    ##    individual        organism present    ct sex   agebin date       device site 
    ##    <chr>             <chr>    <lgl>   <dbl> <chr> <fct>  <date>     <chr>  <chr>
    ##  1 3b0e37482b6b65c8… Adenovi… TRUE     26.4 male  1-5    2022-04-18 OpenA… SCAN 
    ##  2 3b0e37482b6b65c8… IAV      FALSE    NA   male  1-5    2022-04-18 OpenA… SCAN 
    ##  3 3b0e37482b6b65c8… IBV      FALSE    NA   male  1-5    2022-04-18 OpenA… SCAN 
    ##  4 3b0e37482b6b65c8… RSV      FALSE    NA   male  1-5    2022-04-18 OpenA… SCAN 
    ##  5 3b0e37482b6b65c8… Rhinovi… TRUE     27.7 male  1-5    2022-04-18 OpenA… SCAN 
    ##  6 3b0e37482b6b65c8… SARS_Co… TRUE      8   male  1-5    2022-04-18 Taqma… SCAN 
    ##  7 466b4af98120b149… Adenovi… TRUE     21.8 male  1-5    2021-08-30 OpenA… SCAN 
    ##  8 466b4af98120b149… IAV      FALSE    NA   male  1-5    2021-08-30 OpenA… SCAN 
    ##  9 466b4af98120b149… IBV      FALSE    NA   male  1-5    2021-08-30 OpenA… SCAN 
    ## 10 466b4af98120b149… RSV      TRUE     12.1 male  1-5    2021-08-30 OpenA… SCAN 
    ## # ℹ 44 more rows
    ## # ℹ 2 more variables: symptoms <pq__text>, sample <chr>
…
# Exporting prepped data for Analysis

``` r
encounter_rv_cv_pairs_conf
```

    ## # A tibble: 22,536 × 18
    ## # Groups:   individual [8,348]
    ##    individual         date       present_rv_n present_sars_cov_2_n present_rsv_n
    ##    <chr>              <date>            <int>                <int>         <int>
    ##  1 00053caa07b05a9e3… 2022-07-18            0                    0             0
    ##  2 00053caa07b05a9e3… 2022-07-21            0                    0             0
    ##  3 00053caa07b05a9e3… 2022-07-24            0                    0             0
    ##  4 00053caa07b05a9e3… 2022-07-27            0                    1             0
    ##  5 0006bbaa54094a386… 2020-11-21            0                    0             0
    ##  6 0006bbaa54094a386… 2021-03-08            0                    0             0
    ##  7 000a08b251c0514f5… 2021-04-30            0                    0             0
    ##  8 000a08b251c0514f5… 2021-08-21            0                    0             0
    ##  9 000a08b251c0514f5… 2021-09-13            0                    1             0
    ## 10 000a08b251c0514f5… 2021-09-21            0                    0             0
    ## # ℹ 22,526 more rows
    ## # ℹ 13 more variables: present_adv_n <int>, present_iav_n <int>,
    ## #   present_ibv_n <int>, sex <chr>, agebin <fct>, symptoms <pq__text>,
    ## #   sample <chr>, ct_Adenovirus <dbl>, ct_IAV <dbl>, ct_IBV <dbl>,
    ## #   ct_RSV <dbl>, ct_Rhinovirus <dbl>, ct_SARS_CoV_2 <dbl>
…
